sample_netlists/low_level_0/data/low_level_0_post_par_ud.vcd
$date today $end
$timescale 1 ns $end
$scope module low_level_0 $end
$var reg 1 ! in0 $end
$var reg 1 " in1 $end
$var reg 1 # in2 $end
$var reg 1 $ in3 $end
$var reg 1 % in4 $end
$var reg 1 & in5 $end
$var reg 1 ' in6 $end
$var reg 1 ( in7 $end
$var reg 1 ) in8 $end
$var reg 1 * in9 $end
$var wire 1 + out0 $end
$var wire 1 , out1 $end
$var wire 1 - out2 $end
$var wire 1 . out3 $end
$var wire 1 / out4 $end
$var wire 1 0 net0 $end
$var wire 1 1 net1 $end
$var wire 1 2 net10 $end
$var wire 1 3 net11 $end
$var wire 1 4 net12 $end
$var wire 1 5 net13 $end
$var wire 1 6 net14 $end
$var wire 1 7 net15 $end
$var wire 1 8 net16 $end
$var wire 1 9 net17 $end
$var wire 1 : net18 $end
$var wire 1 ; net19 $end
$var wire 1 < net2 $end
$var wire 1 = net3 $end
$var wire 1 > net4 $end
$var wire 1 ? net5 $end
$var wire 1 @ net6 $end
$var wire 1 A net7 $end
$var wire 1 B net8 $end
$var wire 1 C net9 $end
$upscope $end
$enddefinitions $end
#0
$dumpvars
1!
0"
0#
1$
0%
0&
1'
0(
1)
0*
0+
0,
0-
0.
0/
00
01
02
13
04
15
06
07
08
09
0:
0;
0<
0=
0>
1?
0@
0A
1B
0C
$end
#4000
0!
1#
0$
0'
1(
0)
#4001
03
14
05
0?
1A
0B
#8000
1!
1"
0#
1$
0(
1)
#8001
04
15
1?
1@
0A
1B
#12000
0!
1#
0$
1'
1(
#12001
13
14
0?
1A
0B
#16000
1&
0(
#16001
12
04
#16002
1;
#16003
1/
#20000
0"
1$
0)
#20001
05
0@
1B
#20002
10
0;
#20003
0/
#24000
0&
0'
1(
#24001
02
03
14
#24002
11
#28000
1!
0#
0$
1)
#28001
15
1?
0A
0B
#28002
00
01
#32000
0!
1#
1$
0(
0)
#32001
04
05
0?
1A
1B
#32002
10
#36000
1!
1"
0$
#36001
1?
1@
0B
#36002
00
#40000
0!
1%
1)
1*
#40001
15
16
0?
1C
#44000
1$
1(
0)
#44001
14
05
1B
#48000
1!
0$
#48001
1?
0B
#52000
0!
0(
1)
#52001
04
15
0?
#56000
0)
#56001
05
#60000
1$
1(
0*
#60001
14
06
1B
#64000
1!
0"
0#
0$
1&
0(
1*
#64001
12
04
16
1?
0@
0A
0B
#68000
0!
0&
1)
0*
#68001
02
15
06
0?
#72000
1!
1"
1#
0%
1(
#72001
14
1?
1@
1A
0C
#76000
0!
1%
1&
1'
0(
0)
1*
#76001
12
13
04
05
16
0?
1C
#76002
18
1;
#76003
1,
1/
#80000
1!
#80001
1?
#80002
08
#80003
0,
#84000
1$
0%
1)
0*
#84001
15
06
1B
0C
#88000
0$
1(
0)
#88001
14
05
0B
#88002
0;
#88003
0/
#92000
0!
1)
#92001
15
0?
#96000
1!
0"
0#
0'
#96001
03
1?
0@
0A
#100000
1$
0&
1'
0)
#100001
02
13
05
1B
#104000
0'
0(
#104001
03
04
#108000
0!
1"
0$
1*
#108001
16
0?
1@
0B
#112000
1!
0"
1$
1%
1)
#112001
15
1?
0@
1B
1C
#116000
0$
0%
1'
1(
0)
#116001
13
14
05
0B
0C
#116002
1>
#120000
1$
1%
0'
0(
1)
#120001
03
04
15
1B
1C
#120002
0>
#124000
0!
1"
1#
0$
1'
#124001
13
0?
1@
1A
0B
#124002
1>
#128000
0"
0#
1(
#128001
14
0@
0A
#128002
19
#128003
1-
#132000
1"
1#
0)
#132001
05
1@
1A
#132002
09
#132003
0-
#136000
1!
1&
1)
0*
#136001
12
15
06
1?
#136002
0>
#140000
0!
0#
0&
0)
1*
#140001
02
05
16
0?
0A
#140002
1>
#144000
1#
1$
1)
#144001
15
1A
1B
#148000
1!
0'
0)
#148001
03
05
1?
#148002
0>
#152000
0$
1'
0(
#152001
13
04
0B
#152002
1>
#156000
1)
0*
#156001
15
06
#156002
0>
#160000
1&
0'
#160001
12
03
#160002
1;
#160003
1/
#164000
0!
0%
0&
0)
#164001
02
05
0?
0C
#164002
0;
#164003
0/
#168000
1!
0"
1$
1'
1)
#168001
13
15
1?
0@
1B
#172000
0!
0#
1(
0)
#172001
14
05
0?
0A
#176000
1"
1#
0$
0'
0(
1)
#176001
03
04
15
1@
1A
0B
#180000
0"
0#
1$
1*
#180001
16
0@
0A
1B
#184000
0$
0)
#184001
05
0B
#188000
1#
#188001
1A
#192000
1"
1$
1(
1)
#192001
14
15
1@
1B
#196000
1!
0#
0$
1%
#196001
1?
0A
0B
1C
#200000
0!
0%
1&
0(
#200001
12
04
0?
0C
#200002
1;
#200003
1/
#204000
1$
0)
#204001
05
1B
#208000
1!
1(
1)
0*
#208001
14
15
06
1?
#208002
0;
#208003
0/
#212000
0"
0$
0(
#212001
04
0@
0B
#216000
1$
0&
1(
#216001
02
14
1B
#220000
0!
0)
1*
#220001
05
16
0?
#224000
1!
0$
0(
1)
#224001
04
15
1?
0B
#228000
1#
0*
#228001
06
1A
#232000
1"
1%
1'
#232001
13
1@
1C
#236000
0!
0"
0#
1$
0%
0)
#236001
05
0?
0@
0A
1B
0C
#240000
1!
1#
0$
1(
1)
#240001
14
15
1?
1A
0B
#244000
1$
0(
0)
#244001
04
05
1B
#248000
1"
1(
1)
#248001
14
15
1@
#252000
0!
0"
0(
1*
#252001
04
16
0?
0@
#252002
10
1>
#256000
0$
1%
#256001
0B
1C
#256002
00
#260000
0#
1(
#260001
14
0A
#260002
19
#260003
1-
#264000
1!
1#
1$
0%
0'
#264001
03
1?
1A
1B
0C
#264002
09
0>
#264003
0-
#268000
0)
#268001
05
#272000
0!
1"
0#
0$
1'
#272001
13
0?
1@
0A
0B
#272002
1>
#276000
0(
0*
#276001
04
06
#276002
0>
#280000
1!
0"
1%
1&
#280001
12
1?
0@
1C
#284000
1$
0&
1(
1)
#284001
02
14
15
1B
#288000
0!
1"
1#
1&
0(
#288001
12
04
0?
1@
1A
#288002
18
1;
#288003
1,
1/
#292000
0"
0#
0$
0&
#292001
02
0@
0A
0B
#292002
08
19
0;
#292003
0,
1-
0/
#296000
1#
0'
1(
#296001
03
14
1A
#296002
09
#296003
0-
#300000
1"
0(
#300001
04
1@
#304000
1$
0%
1(
0)
#304001
14
05
1B
0C
#308000
0$
0(
#308001
04
0B
#312000
1!
1%
1(
1)
#312001
14
15
1?
1C
#316000
0#
0%
1'
#316001
13
0A
0C
#316002
19
#316003
1-
#320000
0!
0"
1#
1$
#320001
0?
0@
1A
1B
#320002
10
09
#320003
0-
#324000
0$
0)
#324001
05
0B
#324002
00
11
#324003
01
1<
#324004
17
0<
#324005
1+
07
#324006
0+
#328000
0#
0'
1)
1*
#328001
03
15
16
0A
#332000
1!
1"
1#
1$
1%
1&
0)
#332001
12
05
1?
1@
1A
1B
1C
#336000
0!
0(
1)
#336001
04
15
0?
#336002
18
1;
#336003
1,
1/
#340000
1!
0$
0*
#340001
06
1?
0B
#340002
08
#340003
0,
#344000
0#
1$
0%
0&
#344001
02
0A
1B
0C
#344002
0;
#344003
0/
#348000
0$
1%
0)
#348001
05
0B
1C
#352000
0%
1(
#352001
14
0C
#356000
0"
1$
#356001
0@
1B
#360000
0!
1"
1#
0$
0(
#360001
04
0?
1@
1A
0B
#364000
1!
0"
1$
1)
#364001
15
1?
0@
1B
#368000
1"
0#
1&
1(
#368001
12
14
1@
0A
#372000
0"
0$
1'
#372001
13
0@
0B
#372002
19
#372003
1-
#376000
1#
1%
0(
0)
1*
#376001
04
05
16
1A
1C
#376002
09
#376003
0-
#380000
0#
1$
0'
1(
1)
#380001
03
14
15
0A
1B
#384000
1"
0(
#384001
04
1@
#384002
1;
#384003
1/
#388000
0!
1#
0&
#388001
02
0?
1A
#388002
0;
#388003
0/
#392000
0%
1(
0)
#392001
14
05
0C
#396000
1!
0#
0(
1)
#396001
04
15
1?
0A
#400000
0"
0)
#400001
05
0@
#404000
1"
0$
1(
0*
#404001
14
06
1@
0B
#408000
1$
1%
1'
#408001
13
1B
1C
#412000
0"
0(
#412001
04
0@
#416000
0!
1#
0$
0'
1)
#416001
03
15
0?
1A
0B
#420000
1"
1(
#420001
14
1@
#424000
1!
0"
0#
0)
#424001
05
1?
0@
0A
#428000
1#
0(
1)
#428001
04
15
1A
#436000
0#
#436001
0A
#440000
0!
1"
1$
1'
1(
0)
#440001
13
14
05
0?
1@
1B
#444000
0"
1)
#444001
15
0@
#448000
0%
1&
0)
#448001
12
05
0C
#452000
1!
0$
0&
0(
#452001
02
04
1?
0B
#456000
0!
1"
1$
1(
#456001
14
0?
1@
1B
#460000
0$
1%
0(
1)
#460001
04
15
0B
1C
#460002
19
#460003
1-
#464000
1!
0'
0)
#464001
03
05
1?
#464002
09
#464003
0-
#468000
0"
1$
0%
1(
#468001
14
0@
1B
0C
#472000
0(
#472001
04
#476000
0!
1"
1'
1(
1)
1*
#476001
13
14
15
16
0?
1@
#476002
1>
#480000
1!
0$
0)
#480001
05
1?
0B
#484000
1#
1$
0'
#484001
03
1A
1B
#484002
0>
#488000
0#
1)
#488001
15
0A
#492000
0!
0"
1#
1'
0(
#492001
13
04
0?
0@
1A
#492002
10
1>
#496000
1"
1(
0)
#496001
14
05
1@
#496002
00
11
#496003
01
#500000
1!
0"
0(
1)
#500001
04
15
1?
0@
#504000
0!
1"
0#
1%
1&
1(
0*
#504001
12
14
06
0?
1@
0A
1C
#504002
18
0>
#504003
1,
#508000
1!
0&
0(
#508001
02
04
1?
#508002
08
#508003
0,
#512000
0"
1#
#512001
0@
1A
#516000
0!
1"
0$
1*
#516001
16
0?
1@
0B
#516002
1>
#520000
1!
0"
1$
0%
0'
1(
#520001
03
14
1?
0@
1B
0C
#520002
0>
#524000
0!
1"
1%
0(
0)
#524001
04
05
0?
1@
1C
#528000
0%
1)
#528001
15
0C
#532000
0"
0$
1(
#532001
14
0@
0B
#536000
1$
1%
1&
0(
0)
#536001
12
04
05
1B
1C
#536002
10
18
#536003
1,
#544000
0&
1)
0*
#544001
02
15
06
#544002
08
#544003
0,
#548000
1'
0)
#548001
13
05
#552000
1(
1)
#552001
14
15
#556000
0'
0(
#556001
03
04
#560000
0#
0%
1&
1*
#560001
12
16
0A
0C
#560002
00
#564000
1(
0)
#564001
14
05
#568000
1!
1"
0$
1)
#568001
15
1?
1@
0B
#572000
1$
0(
#572001
04
1B
#572002
1;
#572003
1/
#576000
0"
#576001
0@
#576002
0;
#576003
0/
#580000
0!
1"
1(
#580001
14
0?
1@
#584000
1!
0"
0&
0(
#584001
02
04
1?
0@
#588000
0!
1#
1(
#588001
14
0?
1A
#588002
10
#592000
1!
0#
0(
0)
#592001
04
05
1?
0A
#592002
00
#596000
1#
1%
1'
1(
#596001
13
14
1A
1C
#596002
1>
#600000
0!
1"
0'
#600001
03
0?
1@
#600002
0>
#604000
0(
1)
#604001
04
15
#608000
0)
#608001
05
#612000
0"
1&
1'
1(
#612001
12
13
14
0@
#612002
10
18
#612003
1,
#616000
0&
#616001
02
#616002
11
08
1>
#616003
0,
#620000
1"
0#
0(
#620001
04
1@
0A
#620002
00
01
#624000
1!
0"
1#
1(
0*
#624001
14
06
1?
0@
1A
#624002
0>
#628000
0!
0%
0'
#628001
03
0?
0C
#628002
10
#628003
11
#632000
0#
1'
#632001
13
0A
#632002
00
#632003
01
#636000
0(
1)
#636001
04
15
#640000
1!
1"
1#
0$
1%
1&
0'
1(
#640001
12
03
14
1?
1@
1A
0B
1C
#644000
1$
0%
#644001
1B
0C
#648000
0!
0)
#648001
05
0?
#652000
0"
0#
1)
#652001
15
0@
0A
#656000
1#
0)
#656001
05
1A
#656002
10
#660000
1%
0&
1'
0(
#660001
02
13
04
1C
#664000
1!
1"
0#
0$
1&
1(
#664001
12
14
1?
1@
0A
0B
#664002
00
#668000
1$
1)
#668001
15
1B
#672000
0"
1#
0$
0&
0'
0)
#672001
02
03
05
0@
1A
0B
#676000
0!
0%
0(
1)
#676001
04
15
0?
0C
#680000
1!
1$
1(
1*
#680001
14
16
1?
1B
#684000
0!
1"
0(
0)
#684001
04
05
0?
1@
#688000
1!
1%
1&
1'
1(
#688001
12
13
14
1?
1C
#692000
0!
0"
0#
0(
1)
#692001
04
15
0?
0@
0A
#692002
18
#692003
1,
#696000
1#
0%
0'
#696001
03
1A
0C
#696002
10
08
#696003
0,
#700000
1"
0#
#700001
1@
0A
#700002
00
1;
#700003
1/
#708000
1!
1(
#708001
14
1?
#708002
0;
#708003
0/
#712000
0$
1'
0(
#712001
13
04
0B
#712002
19
1;
#712003
1-
1/
#716000
1(
#716001
14
#716002
0;
#716003
0/
#720000
0(
0)
#720001
04
05
#720002
09
1;
#720003
0-
1/
#724000
0"
1(
#724001
14
0@
#724002
0;
#724003
0/
#728000
0!
1"
1#
0'
0(
1)
#728001
03
04
15
0?
1@
1A
#728002
1;
#728003
1/
#732000
1!
1'
#732001
13
1?
#736000
0#
1$
0)
#736001
05
0A
1B
#740000
0!
0"
1%
1(
#740001
14
0?
0@
1C
#740002
18
0;
#740003
1,
0/
#744000
0$
0%
0(
0*
#744001
04
06
0B
0C
#744002
08
#744003
0,
#748000
1$
1(
#748001
14
1B
#752000
0$
1)
#752001
15
0B
#752002
19
#752003
1-
#756000
0(
0)
#756001
04
05
#756002
09
#756003
0-
#760000
1#
0&
1(
#760001
02
14
1A
#764000
1!
0(
#764001
04
1?
#768000
0'
1(
#768001
03
14
#772000
0!
1"
1$
1%
#772001
0?
1@
1B
1C
#776000
0#
0(
1)
#776001
04
15
0A
#780000
0$
1(
0)
#780001
14
05
0B
#784000
1!
1$
0(
#784001
04
1?
1B
#788000
0!
0$
#788001
0?
0B
#792000
1!
1#
1)
#792001
15
1?
1A
#796000
0!
0"
0)
#796001
05
0?
0@
#800000
1!
1"
1&
1'
1(
#800001
12
13
14
1?
1@
#804000
0!
0#
1$
0%
0'
#804001
03
0?
0A
1B
0C
#808000
1!
0"
#808001
1?
0@
#812000
0!
0(
#812001
04
0?
#816000
1!
1#
1%
0&
1(
1)
#816001
02
14
15
1?
1A
1C
#820000
0%
#820001
0C
#824000
0#
0(
0)
#824001
04
05
0A
#828000
1"
1#
1&
1'
1(
#828001
12
13
14
1@
1A
#832000
0!
0"
0'
1)
#832001
03
15
0?
0@
#832002
10
#836000
0#
0$
0&
0(
1*
#836001
02
04
16
0A
0B
#836002
00
#840000
1!
1"
1$
1%
1(
#840001
14
1?
1@
1B
1C
#844000
1#
0%
0)
#844001
05
1A
0C
#848000
0!
0"
0#
0$
#848001
0?
0@
0A
0B
#852000
1"
1$
1%
1&
0(
#852001
12
04
1@
1B
1C
#852002
18
1;
#852003
1,
1/
#856000
1!
0$
1'
1)
#856001
13
15
1?
0B
#856002
08
19
#856003
0,
1-
#860000
0"
0&
0'
1(
#860001
02
03
14
0@
#860002
09
0;
#860003
0-
0/
#864000
1#
0(
0)
#864001
04
05
1A
#868000
1(
1)
#868001
14
15
#872000
1"
0%
0)
#872001
05
1@
0C
#876000
0!
0(
#876001
04
0?
#884000
1!
0"
0#
1'
1)
#884001
13
15
1?
0@
0A
#884002
19
1>
#884003
1-
#888000
1#
1$
1&
1(
#888001
12
14
1A
1B
#888002
09
0>
#888003
0-
#892000
0$
1%
#892001
0B
1C
#896000
1"
0#
0%
0&
0'
0(
#896001
02
03
04
1@
0A
0C
#900000
1%
0)
0*
#900001
05
06
1C
#904000
1$
1(
1)
#904001
14
15
1B
#908000
0!
0"
0$
1'
1*
#908001
13
16
0?
0@
0B
#908002
19
1>
#908003
1-
#912000
1"
1#
0*
#912001
06
1@
1A
#912002
09
0>
#912003
0-
#916000
0'
0)
#916001
03
05
#920000
1!
0"
0#
1&
#920001
12
1?
0@
0A
#924000
0!
1"
1$
#924001
0?
1@
1B
#924002
18
#924003
1,
#928000
1!
0%
#928001
1?
0C
#928002
08
#928003
0,
#932000
1#
0(
#932001
04
1A
#932002
1;
#932003
1/
#936000
0"
1'
1)
#936001
13
15
0@
#936002
0;
#936003
0/
#940000
1"
0#
#940001
1@
0A
#940002
1;
#940003
1/
#944000
0!
1(
#944001
14
0?
#944002
0;
#944003
0/
#948000
1#
1%
0'
0(
0)
#948001
03
04
05
1A
1C
#948002
18
1;
#948003
1,
1/
#952000
1!
1'
1)
#952001
13
15
1?
#952002
08
#952003
0,
#956000
0"
0'
0)
#956001
03
05
0@
#956002
0;
#956003
0/
#960000
0#
0$
#960001
0A
0B
#964000
1$
0%
1(
#964001
14
1B
0C
#968000
0!
1"
1#
1%
#968001
0?
1@
1A
1C
#968002
18
#968003
1,
#972000
0$
1'
1)
#972001
13
15
0B
#980000
1!
0"
0#
1$
0)
#980001
05
1?
0@
0A
1B
#980002
08
#980003
0,
#984000
0&
0(
1)
#984001
02
04
15
#988000
0!
1"
1#
0%
1&
0)
#988001
12
05
0?
1@
1A
0C
#988002
1;
#988003
1/
#992000
0$
0&
#992001
02
0B
#992002
0;
#992003
0/
#996000
1$
1(
1)
#996001
14
15
1B
#1000000
1*
#1000001
16
#1000002
1>
#1004000
1!
0"
0$
1&
0'
0)
#1004001
12
03
05
1?
0@
0B
#1004002
0>
#1008000
1$
1%
1'
1)
#1008001
13
15
1B
1C
#1012000
0$
0(
0*
#1012001
04
06
0B
#1016000
0!
1$
0'
0)
#1016001
03
05
0?
1B
#1016002
10
18
#1016003
1,
#1020000
1!
0$
1(
1)
#1020001
14
15
1?
0B
#1020002
00
08
#1020003
0,
#1024000
0!
0(
#1024001
04
0?
#1024002
18
#1024003
1,
#1028000
0#
#1028001
0A
#1032000
1!
1#
1$
1*
#1032001
16
1?
1A
1B
#1032002
08
#1032003
0,
#1036000
1"
0$
0%
1'
#1036001
13
1@
0B
0C
#1036002
1;
#1036003
1/
#1040000
1$
0'
1(
#1040001
03
14
1B
#1040002
0;
#1040003
0/
#1044000
0"
0&
0(
#1044001
02
04
0@
#1048000
0#
0$
1'
0*
#1048001
13
06
0A
0B
#1048002
19
#1048003
1-
#1052000
1#
1$
1(
1*
#1052001
14
16
1A
1B
#1052002
09
1>
#1052003
0-
#1056000
1"
0#
0)
#1056001
05
1@
0A
#1060000
1%
0'
#1060001
03
1C
#1060002
0>
#1064000
0$
0%
1&
1)
#1064001
12
15
0B
0C
#1068000
1'
#1068001
13
#1068002
19
#1068003
1-
#1072000
1$
1%
0(
#1072001
04
1B
1C
#1072002
09
1;
#1072003
0-
1/
#1076000
0"
0$
#1076001
0@
0B
#1076002
19
0;
#1076003
1-
0/
#1080000
1$
0%
0)
0*
#1080001
05
06
1B
0C
#1080002
09
#1080003
0-
#1084000
0!
1*
#1084001
16
0?
#1088000
1!
#1088001
1?
#1092000
0!
1"
1)
#1092001
15
0?
1@
#1092002
1;
#1092003
1/
#1096000
0$
0&
0'
1(
0)
#1096001
02
03
14
05
0B
#1096002
0;
#1096003
0/
#1100000
0"
1#
1$
1'
0(
#1100001
13
04
0@
1A
1B
#1100002
10
1>
#1104000
1"
0$
1&
1)
#1104001
12
15
1@
0B
#1104002
00
0>
#1104003
1;
#1104004
1/
#1108000
1!
0#
0)
#1108001
05
1?
0A
#1116000
0!
1$
0'
1)
#1116001
03
15
0?
1B
#1120000
1!
0"
1#
1(
#1120001
14
1?
0@
1A
#1120002
0;
#1120003
0/
#1124000
0!
0#
0(
#1124001
04
0?
0A
#1128000
1!
1#
1'
1(
0)
#1128001
13
14
05
1?
1A
#1132000
0#
0$
0&
0'
#1132001
02
03
0A
0B
#1136000
0!
1%
#1136001
0?
1C
#1140000
1$
0%
1'
1)
#1140001
13
15
1B
0C
#1140002
1>
#1144000
1!
1%
#1144001
1?
1C
#1148000
0$
0(
0)
0*
#1148001
04
05
06
0B
#1148002
0>
#1152000
1"
1#
#1152001
1@
1A
#1156000
0!
0#
1(
#1156001
14
0?
0A
#1160000
1#
1&
0(
#1160001
12
04
1A
#1160002
18
1;
#1160003
1,
1/
#1164000
0%
1)
1*
#1164001
15
16
0C
#1164002
08
#1164003
0,
#1168000
0#
1(
#1168001
14
0A
#1168002
19
0;
#1168003
1-
0/
#1172000
0"
1#
1%
#1172001
0@
1A
1C
#1172002
18
09
#1172003
1,
0-
#1176000
1"
0%
0'
0(
0)
#1176001
03
04
05
1@
0C
#1176002
08
1;
#1176003
0,
1/
#1180000
1!
0"
1$
1(
1)
0*
#1180001
14
15
06
1?
0@
1B
#1180002
0;
#1180003
0/
#1184000
1"
0#
0$
0(
#1184001
04
1@
0A
0B
#1184002
1;
#1184003
1/
#1188000
1%
0)
#1188001
05
1C
#1192000
0"
1$
1(
#1192001
14
0@
1B
#1192002
0;
#1192003
0/
#1196000
0!
1#
0%
1)
1*
#1196001
15
16
0?
1A
0C
#1196002
10
#1200000
0)
#1200001
05
#1204000
0$
1%
#1204001
0B
1C
#1204002
00
18
#1204003
1,
#1208000
1!
1"
0#
0(
#1208001
04
1?
1@
0A
#1208002
08
1;
#1208003
0,
1/
#1212000
0!
0%
1'
1(
0*
#1212001
13
14
06
0?
0C
#1212002
0;
#1212003
0/
#1216000
1!
#1216001
1?
#1220000
1#
1$
#1220001
1A
1B
#1224000
0(
#1224001
04
#1224002
1;
#1224003
1/
#1228000
0#
1%
1(
1)
1*
#1228001
14
15
16
0A
1C
#1228002
0;
#1228003
0/
#1232000
1#
0%
0'
0(
0*
#1232001
03
04
06
1A
0C
#1232002
1;
#1232003
1/
#1236000
0"
0#
0$
1(
0)
#1236001
14
05
0@
0A
0B
#1236002
0;
#1236003
0/
#1240000
0!
1)
#1240001
15
0?
#1244000
1"
1%
1'
#1244001
13
1@
1C
#1244002
18
19
#1244003
1,
1-
#1248000
0"
1#
0(
1*
#1248001
04
16
0@
1A
#1248002
09
#1248003
0-
#1252000
0'
0*
#1252001
03
06
#1256000
0#
1*
#1256001
16
0A
#1260000
1$
1(
#1260001
14
1B
#1264000
1!
0%
1'
0(
#1264001
13
04
1?
0C
#1264002
08
#1264003
0,
#1268000
1"
1#
0'
1(
0)
#1268001
03
14
05
1@
1A
#1272000
0#
#1272001
0A
#1276000
0!
0$
1'
0(
#1276001
13
04
0?
0B
#1276002
1;
#1276003
1/
#1280000
1)
#1280001
15
#1280002
19
#1280003
1-
#1284000
1!
1#
1(
#1284001
14
1?
1A
#1284002
09
0;
#1284003
0-
0/
#1288000
0!
#1288001
0?
#1292000
1!
0"
0'
0(
#1292001
03
04
1?
0@
#1296000
1"
0#
1(
0)
0*
#1296001
14
05
06
1@
0A
#1300000
0"
1$
1'
0(
#1300001
13
04
0@
1B
#1304000
1%
1(
1)
1*
#1304001
14
15
16
1C
#1308000
0'
0)
#1308001
03
05
#1312000
0!
1"
1'
0*
#1312001
13
06
0?
1@
#1312002
18
#1312003
1,
#1316000
1!
1#
0$
0(
1)
#1316001
04
15
1?
1A
0B
#1316002
08
1;
#1316003
0,
1/
#1320000
0!
0)
#1320001
05
0?
#1320002
18
#1320003
1,
#1324000
1(
#1324001
14
#1324002
0;
#1324003
0/
#1328000
0"
1$
0%
0&
0(
#1328001
02
04
0@
1B
0C
#1328002
10
08
#1328003
0,
#1332000
1!
1)
#1332001
15
1?
#1332002
00
#1336000
0!
1(
1*
#1336001
14
16
0?
#1336002
10
1>
#1340000
1!
1%
1&
#1340001
12
1?
1C
#1340002
00
0>
#1344000
0!
0#
0)
0*
#1344001
05
06
0?
0A
#1344002
18
#1344003
1,
#1348000
1#
0$
0'
#1348001
03
1A
0B
#1352000
1!
1$
#1352001
1?
1B
#1352002
08
#1352003
0,
#1356000
1"
0#
0$
0&
#1356001
02
1@
0A
0B
#1360000
0"
1#
0(
1)
#1360001
04
15
0@
1A
#1364000
1'
0)
#1364001
13
05
#1368000
0!
1$
1(
1)
#1368001
14
15
0?
1B
#1368002
10
#1372000
1"
0%
#1372001
1@
0C
#1372002
00
#1376000
1!
0$
0(
0)
#1376001
04
05
1?
0B
#1380000
0"
1%
1)
#1380001
15
0@
1C
#1384000
0!
1"
0#
1(
0)
#1384001
14
05
0?
1@
0A
#1388000
1!
0"
0(
1)
1*
#1388001
04
15
16
1?
0@
#1388002
19
1>
#1388003
1-
#1392000
1#
1$
#1392001
1A
1B
#1392002
09
#1392003
0-
#1396000
1"
0#
1&
1(
#1396001
12
14
1@
0A
#1396002
0>
#1400000
0"
1#
0$
0%
#1400001
0@
1A
0B
0C
#1404000
0#
1$
0)
#1404001
05
0A
1B
#1408000
0!
0&
1)
#1408001
02
15
0?
#1408002
1>
#1412000
1!
1#
0)
0*
#1412001
05
06
1?
1A
#1412002
0>
#1416000
0!
1"
0$
0'
0(
1)
#1416001
03
04
15
0?
1@
0B
#1420000
0"
1&
0)
#1420001
12
05
0@
#1424000
1!
1'
1(
#1424001
13
14
1?
#1428000
1"
0#
0&
1)
#1428001
02
15
1@
0A
#1428002
19
#1428003
1-
#1432000
0"
0)
#1432001
05
0@
#1432002
09
#1432003
0-
#1436000
1"
1$
0(
1)
#1436001
04
15
1@
1B
#1440000
0)
#1440001
05
#1444000
0!
0"
1#
1%
1(
#1444001
14
0?
0@
1A
1C
#1444002
10
#1444003
11
#1448000
1!
#1448001
1?
#1448002
00
#1448003
01
1<
#1448004
0<
#1452000
0!
0$
0(
1)
#1452001
04
15
0?
0B
#1456000
1!
0#
0%
0'
1*
#1456001
03
16
1?
0A
0C
#1460000
1#
1$
1%
#1460001
1A
1B
1C
#1464000
0!
0#
1(
#1464001
14
0?
0A
#1468000
1#
0$
1&
1'
#1468001
12
13
1A
0B
#1468002
18
#1468003
1,
#1472000
0#
1$
0*
#1472001
06
0A
1B
#1476000
1"
0%
0&
1*
#1476001
02
16
1@
0C
#1476002
08
1>
#1476003
0,
#1480000
1!
0'
0(
0*
#1480001
03
04
06
1?
#1480002
0>
#1484000
1'
0)
#1484001
13
05
#1488000
0"
1#
0'
1(
1)
1*
#1488001
03
14
15
16
0@
1A
#1492000
0!
0#
#1492001
0?
0A
#1496000
1!
1&
1'
0(
#1496001
12
13
04
1?
#1500000
0$
0'
0*
#1500001
03
06
0B
#1504000
0!
1"
0&
1(
#1504001
02
14
0?
1@
#1508000
1$
0(
#1508001
04
1B
#1512000
0$
1&
#1512001
12
0B
#1512002
1;
#1512003
1/
#1516000
1!
0"
1*
#1516001
16
1?
0@
#1516002
0;
#1516003
0/
#1520000
1#
0)
0*
#1520001
05
06
1A
#1524000
0!
1"
0#
1%
#1524001
0?
1@
0A
1C
#1524002
18
1;
#1524003
1,
1/
#1528000
1#
1(
#1528001
14
1A
#1528002
0;
#1528003
0/
#1532000
1$
0(
1)
1*
#1532001
04
15
16
1B
#1532002
1;
#1532003
1/
#1536000
1!
0&
1(
0)
#1536001
02
14
05
1?
#1536002
08
0;
#1536003
0,
0/
#1540000
0!
0$
1)
0*
#1540001
15
06
0?
0B
#1544000
1!
0#
#1544001
1?
0A
#1548000
0!
1#
0)
#1548001
05
0?
1A
#1552000
0(
1)
#1552001
04
15
#1556000
0"
1$
#1556001
0@
1B
#1556002
10
#1560000
1!
0#
1'
1(
1*
#1560001
13
14
16
1?
0A
#1560002
00
1>
#1564000
0!
1"
1#
0(
0)
#1564001
04
05
0?
1@
1A
#1568000
0#
0$
1&
1(
#1568001
12
14
0A
0B
#1568002
18
0>
#1568003
1,
#1572000
1#
1$
0(
0*
#1572001
04
06
1A
1B
#1572002
1;
#1572003
1/
#1576000
1!
0'
#1576001
03
1?
#1576002
08
#1576003
0,
#1580000
0"
1(
1)
#1580001
14
15
0@
#1580002
0;
#1580003
0/
#1584000
1"
0#
#1584001
1@
0A
#1588000
0!
0%
#1588001
0?
0C
#1592000
1!
1%
0&
#1592001
02
1?
1C
#1596000
0$
1&
0(
#1596001
12
04
0B
#1596002
1;
#1596003
1/
#1600000
1$
0&
1(
1*
#1600001
02
14
16
1B
#1600002
0;
#1600003
0/
#1604000
1&
0(
#1604001
12
04
#1604002
1;
#1604003
1/
#1608000
0"
1#
0$
1(
0*
#1608001
14
06
0@
1A
0B
#1608002
0;
#1608003
0/
#1612000
0#
1$
0)
#1612001
05
0A
1B
#1616000
1"
1#
0(
1*
#1616001
04
16
1@
1A
#1616002
1;
#1616003
1/
#1620000
0"
1'
1)
0*
#1620001
13
15
06
0@
#1620002
0;
#1620003
0/
#1624000
0!
1(
#1624001
14
0?
#1624002
10
18
#1624003
1,
#1628000
0#
0'
1*
#1628001
03
16
0A
#1628002
00
#1632000
1#
0&
0(
0)
0*
#1632001
02
04
05
06
1A
#1632002
10
08
#1632003
0,
#1636000
0#
1(
1)
#1636001
14
15
0A
#1636002
00
#1640000
1!
1#
1*
#1640001
16
1?
1A
#1644000
0%
1'
0(
#1644001
13
04
0C
#1644002
1>
#1648000
0#
0$
0'
#1648001
03
0A
0B
#1648002
0>
#1652000
1$
1(
#1652001
14
1B
#1656000
1"
1&
#1656001
12
1@
#1660000
0"
0$
1%
0(
0)
0*
#1660001
04
05
06
0@
0B
1C
#1664000
0!
1"
1#
1$
1(
1)
#1664001
14
15
0?
1@
1A
1B
#1664002
18
#1664003
1,
#1668000
1!
0(
#1668001
04
1?
#1668002
08
1;
#1668003
0,
1/
#1672000
0!
0#
1(
#1672001
14
0?
0A
#1672002
18
0;
#1672003
1,
0/
#1676000
1!
0(
#1676001
04
1?
#1676002
08
1;
#1676003
0,
1/
#1680000
0!
0"
0%
1'
1(
#1680001
13
14
0?
0@
0C
#1680002
0;
#1680003
0/
#1684000
1!
0&
0(
#1684001
02
04
1?
#1688000
1"
1#
0$
1%
1*
#1688001
16
1@
1A
0B
1C
#1688002
1>
#1692000
0"
0'
0*
#1692001
03
06
0@
#1692002
0>
#1696000
0!
0)
#1696001
05
0?
#1700000
1"
0#
1$
#1700001
1@
0A
1B
#1704000
0$
0%
1(
#1704001
14
0B
0C
#1708000
1$
#1708001
1B
