sample_netlists/high_level_0/data/high_level_0_post_par_ud.vcd
$date today $end
$timescale 1 ns $end
$scope module high_level_0 $end
$var reg 1 ! in0 $end
$var reg 1 " in1 $end
$var reg 1 # in2 $end
$var reg 1 $ in3 $end
$var reg 1 % in4 $end
$var reg 1 & in5 $end
$var reg 1 ' in6 $end
$var reg 1 ( in7 $end
$var reg 1 ) in8 $end
$var reg 1 * in9 $end
$var wire 1 + out0 $end
$var wire 1 , out1 $end
$var wire 1 - out2 $end
$var wire 1 . out3 $end
$var wire 1 / out4 $end
$var wire 1 0 net0 $end
$var wire 1 1 net1 $end
$var wire 1 2 net10 $end
$var wire 1 3 net11 $end
$var wire 1 4 net12 $end
$var wire 1 5 net13 $end
$var wire 1 6 net14 $end
$var wire 1 7 net15 $end
$var wire 1 8 net16 $end
$var wire 1 9 net17 $end
$var wire 1 : net18 $end
$var wire 1 ; net19 $end
$var wire 1 < net2 $end
$var wire 1 = net3 $end
$var wire 1 > net4 $end
$var wire 1 ? net5 $end
$var wire 1 @ net6 $end
$var wire 1 A net7 $end
$var wire 1 B net8 $end
$var wire 1 C net9 $end
$upscope $end
$enddefinitions $end
#0
$dumpvars
1!
0"
0#
0$
0%
1&
0'
0(
0)
0*
0+
1,
0-
0.
1/
10
11
12
03
04
05
06
07
18
09
0:
1;
1<
1=
1>
1?
0@
0A
0B
0C
$end
#4000
1%
#4001
1C
#4002
17
08
#4003
1+
0,
1:
0=
#4004
1.
#8000
0!
0&
1)
#8001
02
15
0?
#8002
00
0>
#8003
0;
0<
#8004
0/
0:
1=
#8005
0.
18
1>
#8006
1,
1;
#8007
1/
#12000
1"
1$
#12001
1@
1B
#12002
10
19
#12003
1-
1<
#12004
0=
#12005
08
1:
0>
#12006
0,
1.
0;
#12007
0/
#16000
0$
0%
1&
1'
#16001
12
13
0B
0C
#16002
07
09
1>
#16003
0+
0-
1=
#16004
18
#16005
1,
0:
#16006
0.
#20000
0&
0'
#20001
02
03
#20002
1;
#20003
1/
#24000
1!
1$
1&
1*
#24001
12
16
1?
1B
#24002
17
19
0;
#24003
1+
1-
0/
0=
#24004
1:
#24005
1.
#28000
0!
1#
0$
1%
0&
#28001
02
0?
1A
0B
1C
#28002
08
1;
0<
0>
#28003
0,
1/
0:
0;
1=
#28004
0.
0/
18
1>
#28005
1,
1;
#28006
1/
#32000
1!
0"
1'
#32001
13
1?
0@
#32002
09
0>
#32003
0-
0;
#32004
0/
#36000
0%
#36001
0C
#36002
07
#36003
0+
#44000
1&
0'
#44001
12
03
#44002
19
1>
#44003
1-
1;
#44004
1/
#48000
1$
1%
0&
1'
#48001
02
13
1B
1C
#48002
00
17
09
0>
#48003
1+
0-
0;
#48004
0/
#52000
0!
1"
0%
#52001
0?
1@
0C
#56000
1!
1%
1&
0'
0*
#56001
12
03
06
1?
1C
#56002
08
19
1>
#56003
0,
1-
1:
#56004
1.
#64000
0"
0$
#64001
0@
0B
#64002
10
1;
#64003
1/
#68000
0#
1$
0%
0&
#68001
02
0A
1B
0C
#68002
18
1<
#68003
1,
0:
0=
#68004
0.
1:
0>
#68005
1.
0;
#68006
0/
#72000
0!
1#
1&
1'
#72001
12
13
0?
1A
#72002
00
07
08
09
0<
1>
#72003
0+
0,
0-
17
1;
1=
#72004
1+
1/
18
#72005
1,
0:
#72006
0.
#76000
0$
0'
#76001
03
0B
#76002
07
19
#76003
0+
1-
#80000
1$
#80001
1B
#80002
17
#80003
1+
#84000
0$
1%
#84001
0B
1C
#84002
08
#84003
0,
1:
#84004
1.
#88000
1$
0)
#88001
05
1B
#92000
0&
1'
#92001
02
13
#92002
01
18
#92003
1,
0:
0=
#92004
0.
08
1:
0>
#92005
0,
1.
0:
0;
#92006
0.
0/
#96000
1"
0$
#96001
1@
0B
#96002
10
#96003
1<
1=
#96004
07
18
1:
0=
1>
#96005
0+
1,
1.
08
1;
1=
0>
#96006
0,
1/
18
0;
1>
#96007
1,
0/
0:
1;
#96008
0.
1/
#100000
1!
0#
1$
1&
1*
#100001
12
16
1?
0A
1B
#100002
11
08
0;
0>
#100003
0,
0/
1:
#100004
1.
#104000
1#
0&
#104001
02
1A
#104002
00
01
18
0<
#104003
1,
17
0:
1<
0=
#104004
1+
0.
07
1:
#104005
0+
1.
#108000
0!
0$
0%
#108001
0?
0B
0C
#108002
10
08
#108003
0,
1=
#108004
18
#108005
1,
0:
#108006
0.
#112000
1$
1&
#112001
12
1B
#112002
00
11
#112003
0<
#112004
17
#112005
1+
#116000
1!
0#
0$
#116001
1?
0A
0B
#116002
10
07
09
1<
#116003
0+
0-
#120000
0!
0"
1#
0&
#120001
02
0?
0@
1A
#120002
00
01
19
0<
#120003
1-
1<
0=
#120004
08
1:
#120005
0,
1.
#124000
1%
#124001
1C
#128000
1!
1$
1&
#128001
12
1?
1B
#128002
11
#128003
0<
1=
#128004
17
0:
#128005
1+
0.
#132000
0!
0$
0%
0&
0'
#132001
02
03
0?
0B
0C
#132002
01
07
18
1>
#132003
0+
1,
1;
1<
0=
#132004
1/
08
1:
0>
#132005
0,
1.
0;
#132006
0/
#136000
1$
1'
#136001
13
1B
#140000
0$
1%
1&
0*
#140001
12
06
0B
1C
#140002
11
0<
1>
#140003
17
1;
1=
#140004
1+
1/
#144000
1$
0%
0'
#144001
03
1B
0C
#144002
18
#144003
1,
0:
#144004
0.
#148000
1'
#148001
13
#152000
0#
0$
0'
#152001
03
0A
0B
#152002
07
09
#152003
0+
0-
#156000
1!
1$
1%
0&
#156001
02
1?
1B
1C
#156002
10
01
17
19
#156003
1+
1-
1<
#156004
0=
#156005
1:
0>
#156006
1.
0;
#156007
0/
#160000
0!
1&
1'
#160001
12
13
0?
#160002
00
11
07
08
1>
#160003
0+
0,
1;
0<
1=
#160004
1/
17
#160005
1+
#164000
1"
0$
0&
#164001
02
1@
0B
#164002
10
01
18
09
#164003
1,
0-
0:
1<
#164004
0.
07
0=
#164005
0+
08
1:
1=
0>
#164006
0,
1.
18
0;
1>
#164007
1,
0/
0:
1;
#164008
0.
1/
#168000
1!
#168001
1?
#172000
0!
0'
#172001
03
0?
#172002
17
#172003
1+
0=
#172004
08
1:
0>
#172005
0,
1.
0;
#172006
0/
#176000
0"
1$
1'
#176001
13
0@
1B
#176002
00
07
19
#176003
0+
1-
0<
#176004
17
0:
#176005
1+
0.
#180000
1!
0$
#180001
1?
0B
#180002
10
18
09
#180003
1,
0-
1<
1=
#180004
07
0=
1>
#180005
0+
1:
1;
1=
0>
#180006
1.
1/
0:
0;
1>
#180007
0.
0/
1;
#180008
1/
#184000
1"
0%
0'
#184001
03
1@
0C
#188000
1#
1'
#188001
13
1A
#188002
19
#188003
1-
#192000
0!
1$
0'
#192001
03
0?
1B
#192002
00
17
#192003
1+
0<
0=
#192004
08
1:
0>
#192005
0,
1.
0:
0;
#192006
0.
0/
#196000
1!
0$
1&
1(
#196001
12
14
1?
0B
#196002
10
11
07
18
1>
#196003
0+
1,
01
1:
1=
#196004
1.
0:
1<
#196005
0.
#200000
1$
1%
0&
#200001
02
1B
1C
#200002
00
17
1;
#200003
1+
1/
0<
0=
#200004
1:
0>
#200005
1.
0:
#200006
0.
#204000
0#
0$
#204001
0A
0B
#204002
10
09
#204003
0-
1<
1=
#204004
0=
1>
#204005
1:
0>
#204006
1.
#208000
1$
0%
1'
#208001
13
1B
0C
#208002
07
19
#208003
0+
1-
1=
#208004
0:
1>
#208005
0.
#212000
0$
1&
#212001
12
0B
#212002
09
0;
#212003
0-
0/
#216000
1#
1$
#216001
1A
1B
#216002
00
19
#216003
1-
11
0<
0=
#216004
17
1:
1=
#216005
1+
1.
0:
#216006
0.
#220000
0#
0$
#220001
0A
0B
#220002
10
07
09
#220003
0+
0-
01
1<
#224000
1#
1$
1%
0'
#224001
03
1A
1B
1C
#224002
00
17
08
19
#224003
1+
0,
1-
11
1:
0<
0=
#224004
1.
1=
#232000
0"
0$
#232001
0@
0B
#232002
10
1;
#232003
1/
01
#232004
1<
#232005
0=
#236000
0&
#236001
02
#236002
18
0>
#236003
1,
#240000
1&
1'
#240001
12
13
#240002
07
08
1>
#240003
0+
0,
1=
#244000
1"
0&
#244001
02
1@
#244002
18
#244003
1,
0:
#244004
0.
#248000
1&
0'
1*
#248001
12
03
16
#248002
17
08
0;
#248003
1+
0,
0/
1:
0=
#248004
1.
#252000
0!
0"
0#
1$
0&
#252001
02
0?
0@
0A
1B
#252002
00
1;
0>
#252003
1/
#256000
1!
0$
0(
#256001
04
1?
0B
#256002
10
18
09
0;
#256003
1,
0-
0/
#260000
0!
1#
1$
#260001
0?
1A
1B
#260002
00
08
19
#260003
0,
1-
#268000
1!
1"
0$
1&
#268001
12
1?
1@
0B
#268002
10
11
1>
#268003
0<
#268004
1=
#272000
1$
0&
#272001
02
1B
#272002
00
01
18
1;
#272003
1,
1/
0:
1<
0=
#272004
0.
1:
0>
#272005
1.
0;
#272006
0/
#276000
0!
0$
1&
#276001
12
0?
0B
#276002
10
11
08
1>
#276003
0,
0<
#276004
1=
#280000
1!
0"
0#
0&
1'
#280001
02
13
1?
0@
0A
#280002
01
18
09
1;
1<
0>
#280003
1,
0-
1/
07
0:
0;
0=
#280004
0+
0.
0/
1:
1=
#280005
1.
0:
#280006
0.
#284000
0!
1#
1&
0'
#284001
12
03
0?
1A
#284002
00
11
17
08
19
1>
#284003
1+
0,
1-
1:
1;
0<
0=
#284004
1.
1/
1=
#288000
1!
0%
0&
#288001
02
1?
0C
#288002
10
01
07
18
#288003
0+
1,
0:
1<
#288004
0.
#292000
0!
#292001
0?
#292002
00
#292003
0=
#292004
08
1:
0>
#292005
0,
1.
0;
#292006
0/
#296000
1$
1'
#296001
13
1B
#300000
1!
1%
0'
#300001
03
1?
1C
#300002
17
18
#300003
1+
1,
#304000
0%
1&
#304001
12
0C
#304002
11
1>
#304003
1;
0<
#304004
1/
1=
#304005
0:
#304006
0.
#308000
0!
0$
1%
0&
#308001
02
0?
0B
1C
#308002
01
#308003
1<
0=
#308004
08
1:
0>
#308005
0,
1.
0;
#308006
0/
#312000
1!
0#
1$
1&
1'
#312001
12
13
1?
0A
1B
#312002
10
11
07
#312003
0+
1=
#316000
0$
0%
0&
#316001
02
0B
0C
#316002
01
18
09
#316003
1,
0-
0:
#316004
0.
#320000
0!
1)
#320001
15
0?
#320002
00
11
#324000
1"
1#
1%
#324001
1@
1A
1C
#324002
10
0<
#324003
17
#324004
1+
#328000
1&
0'
#328001
12
03
#328002
08
19
1>
#328003
0,
1-
1:
#328004
1.
#332000
1!
#332001
1?
#336000
1$
0%
#336001
1B
0C
#336002
00
18
#336003
1,
0:
#336004
0.
#340000
0"
0$
0&
1'
#340001
02
13
0@
0B
#340002
10
07
09
1;
0>
#340003
0+
0-
1/
0;
#340004
0/
#344000
0'
#344001
03
#344002
19
1>
#344003
1-
1;
#344004
1/
#348000
1$
1%
1&
#348001
12
1B
1C
#348002
00
17
08
#348003
1+
0,
1:
#348004
1.
#352000
0&
#352001
02
#352002
18
#352003
1,
0:
#352004
0.
#356000
0*
#356001
06
#360000
0!
1"
0$
1&
#360001
12
0?
1@
0B
#360002
10
08
0;
#360003
0,
0/
1:
#360004
1.
#364000
1!
0%
1'
1*
#364001
13
16
1?
0C
#364002
07
18
09
0>
#364003
0+
1,
0-
0:
#364004
0.
#368000
0'
0*
#368001
03
06
#368002
19
1>
#368003
1-
#372000
0!
0#
#372001
0?
0A
#372002
09
1<
#372003
0-
#376000
0"
1$
0&
1'
#376001
02
13
0@
1B
#376002
00
1;
#376003
1/
0<
#376004
17
#376005
1+
#384000
1#
0'
#384001
03
1A
#384002
19
#384003
1-
#388000
0#
#388001
0A
#392000
1&
1'
#392001
12
13
#392002
09
#392003
0-
#396000
0$
1%
#396001
0B
1C
#396002
08
#396003
0,
1:
#396004
1.
#404000
1!
1#
0&
0'
#404001
02
03
1?
1A
#404002
10
18
19
#404003
1,
1-
0:
#404004
0.
#408000
1&
1'
0)
1*
#408001
12
13
05
16
#408002
08
0>
#408003
0,
0;
#408004
0/
#412000
0!
1"
1$
#412001
0?
1@
1B
#412002
00
#416000
1!
0#
0$
0%
0'
#416001
03
1?
0A
0B
0C
#416002
10
07
18
09
1<
1>
#416003
0+
1,
0-
#420000
0!
1$
1%
#420001
0?
1B
1C
#420002
17
08
19
#420003
1+
0,
1-
1:
0=
#420004
1.
#424000
1!
#424001
1?
#428000
0!
0&
1'
#428001
02
13
0?
#428002
01
07
1;
0>
#428003
0+
1/
0;
1=
#428004
0/
18
#428005
1,
0:
#428006
0.
#432000
0"
1#
0%
1&
0'
#432001
12
03
0@
1A
0C
#432002
00
11
17
1>
#432003
1+
1;
0<
0=
#432004
1/
08
1:
1=
#432005
0,
1.
18
#432006
1,
0:
#432007
0.
#436000
1"
0&
#436001
02
1@
#436002
01
#436003
1<
0=
#436004
08
1:
0>
#436005
0,
1.
0;
#436006
0/
#440000
0"
0#
0$
#440001
0@
0A
0B
#440002
07
09
#440003
0+
0-
#444000
1!
1%
1'
#444001
13
1?
1C
#444002
10
18
#444003
1,
1=
#444004
0:
#444005
0.
#448000
1$
0'
#448001
03
1B
#448002
17
19
1>
#448003
1+
1-
1;
0=
#448004
1/
1:
0>
#448005
1.
0;
#448006
0/
#452000
0!
0$
#452001
0?
0B
#452002
00
08
09
#452003
0,
0-
#456000
1$
0%
#456001
1B
0C
#456002
19
#456003
1-
#460000
0$
1'
#460001
13
0B
#460002
07
09
#460003
0+
0-
#464000
1%
#464001
1C
#468000
1#
1$
0'
#468001
03
1A
1B
#468002
17
19
#468003
1+
1-
#472000
0%
0*
#472001
06
0C
#472002
0<
#472003
0:
#472004
0.
#476000
0$
1&
#476001
12
0B
#476002
11
07
1>
#476003
0+
1:
1;
1=
#476004
1.
1/
18
#476005
1,
0:
#476006
0.
#480000
1!
1$
1%
0&
1'
#480001
02
13
1?
1B
1C
#480002
01
17
#480003
1+
0=
#480004
1:
0>
#480005
1.
0:
0;
#480006
0.
0/
#484000
0'
#484001
03
#488000
0%
#488001
0C
#492000
0#
1'
#492001
13
0A
#492002
10
#492003
1<
1=
#492004
07
0=
1>
#492005
0+
1:
1;
1=
0>
#492006
1.
1/
0:
0;
1>
#492007
0.
0/
1;
#492008
1/
#496000
0!
1%
#496001
0?
1C
#496002
00
#496003
0<
0=
#496004
17
08
1:
0>
#496005
1+
0,
1.
0:
0;
#496006
0.
0/
#500000
0$
0%
1&
#500001
12
0B
0C
#500002
11
07
09
1>
#500003
0+
0-
1:
1;
1=
#500004
1.
1/
18
#500005
1,
0:
#500006
0.
#504000
0&
#504001
02
#504002
01
#504003
0=
#504004
08
1:
0>
#504005
0,
1.
0:
0;
#504006
0.
0/
#508000
1!
1#
#508001
1?
1A
#508002
10
18
19
#508003
1,
1-
1<
1=
#508004
1>
#508005
1;
#508006
1/
#512000
0#
1%
1&
#512001
12
0A
1C
#512002
11
08
09
#512003
0,
0-
1:
#512004
1.
#516000
0!
1#
#516001
0?
1A
#516002
00
19
0<
#516003
1-
17
#516004
1+
#520000
0'
#520001
03
#524000
1!
0#
1$
0&
#524001
02
1?
0A
1B
#524002
10
01
18
#524003
1,
0:
1<
#524004
0.
0=
#524005
1:
0>
#524006
1.
0;
#524007
0/
#528000
1*
#528001
16
#536000
0%
#536001
0C
#540000
0!
1'
#540001
13
0?
#540002
00
07
08
#540003
0+
0,
#544000
1!
0$
#544001
1?
0B
#544002
10
18
09
#544003
1,
0-
1=
#544004
0:
#544005
0.
#548000
1#
1%
1&
0'
#548001
12
03
1A
1C
#548002
11
17
08
19
1>
#548003
1+
0,
1-
1:
1;
0<
0=
#548004
1.
1/
1=
#552000
0!
1$
0&
#552001
02
0?
1B
#552002
00
01
18
#552003
1,
0:
1<
0=
#552004
0.
08
1:
0>
#552005
0,
1.
0;
#552006
0/
#556000
1!
1'
#556001
13
1?
#556002
07
18
#556003
0+
1,
#560000
0!
0$
1&
#560001
12
0?
0B
#560002
11
08
#560003
0,
0<
1=
#560004
17
0:
#560005
1+
0.
#564000
1$
0&
#564001
02
1B
#564002
01
18
#564003
1,
1<
0=
#564004
07
08
1:
#564005
0+
0,
1.
#568000
0'
#568001
03
#568002
17
#568003
1+
#572000
0$
0%
1&
#572001
12
0B
0C
#572002
11
07
1>
#572003
0+
1;
0<
1=
#572004
1/
18
#572005
1,
0:
#572006
0.
#576000
0*
#576001
06
#580000
1'
#580001
13
#584000
0'
1*
#584001
03
16
#588000
1"
0#
0&
#588001
02
1@
0A
#588002
10
01
09
1<
#588003
0-
#592000
1!
1$
1'
#592001
13
1?
1B
#592002
19
0>
#592003
1-
0;
#592004
0/
#596000
1#
0$
1%
#596001
1A
0B
1C
#600000
1$
0%
#600001
1B
0C
#600002
00
#600003
0=
#600004
1:
#600005
1.
#604000
0!
1&
0'
#604001
12
03
0?
#604002
11
17
08
1>
#604003
1+
0,
0<
#604004
1=
#604005
18
#604006
1,
0:
#604007
0.
#608000
0$
0&
#608001
02
0B
#608002
10
01
07
1;
#608003
0+
1/
1<
#612000
1$
1&
1'
#612001
12
13
1B
#612002
00
11
0;
0>
#612003
0/
0<
#612004
17
#612005
1+
#616000
0$
0&
#616001
02
0B
#616002
10
01
07
#616003
0+
1<
#620000
0"
1&
0'
#620001
12
03
0@
#620002
00
11
1>
#620003
1;
0<
#620004
1/
#624000
1%
1)
#624001
15
1C
#624002
17
08
#624003
1+
0,
1:
#624004
1.
#628000
1$
0%
#628001
1B
0C
#628002
18
#628003
1,
0:
#628004
0.
#632000
1!
0$
#632001
1?
0B
#632002
10
07
#632003
0+
#636000
1"
1$
1%
0&
1'
#636001
02
13
1@
1B
1C
#636002
00
17
09
0>
#636003
1+
0-
0;
#636004
0/
#640000
0%
0'
#640001
03
0C
#640002
19
1>
#640003
1-
1;
#640004
1/
#644000
0#
0$
#644001
0A
0B
#644002
10
07
09
1<
#644003
0+
0-
#648000
0"
1'
#648001
13
0@
#648002
0>
#648003
0;
#648004
0/
#652000
0!
1#
1$
1%
1&
0'
#652001
12
03
0?
1A
1B
1C
#652002
00
17
08
19
0<
1>
#652003
1+
0,
1-
1:
1;
#652004
1.
1/
#656000
0)
#656001
05
#660000
1"
0#
0$
0&
1'
#660001
02
13
1@
0A
0B
#660002
10
01
18
09
1<
0>
#660003
1,
0-
07
0:
0;
0=
#660004
0+
0.
0/
08
1:
1=
#660005
0,
1.
18
#660006
1,
0:
#660007
0.
#664000
1!
1#
1&
0'
#664001
12
03
1?
1A
#664002
11
17
08
19
1>
#664003
1+
0,
1-
1:
0<
0=
#664004
1.
1=
#668000
1'
#668001
13
#668002
0>
#668003
0:
#668004
0.
#672000
0"
0#
0'
#672001
03
0@
0A
#672002
09
1<
1>
#672003
0-
1:
1;
0=
#672004
1.
1/
#676000
0!
1#
0&
#676001
02
0?
1A
#676002
00
01
19
0<
0>
#676003
1-
0:
0;
1<
#676004
0.
0/
1:
#676005
1.
#680000
1$
1'
#680001
13
1B
#680002
07
#680003
0+
#684000
1!
1"
0$
#684001
1?
1@
0B
#684002
10
18
#684003
1,
1=
#684004
0:
#684005
0.
#688000
1$
0'
#688001
03
1B
#688002
00
17
1>
#688003
1+
1;
0=
#688004
1/
1:
0>
#688005
1.
0;
#688006
0/
#692000
0!
1&
#692001
12
0?
#692002
11
08
1>
#692003
0,
0<
#692004
1=
#696000
1!
0"
0%
0&
#696001
02
1?
0@
0C
#696002
01
18
1;
#696003
1,
1/
0:
1<
0=
#696004
0.
1:
0>
#696005
1.
0;
#696006
0/
#700000
1&
#700001
12
#700002
11
1>
#700003
1;
0<
#700004
1/
1=
#700005
0:
#700006
0.
#704000
0#
1%
0&
#704001
02
0A
1C
#704002
10
01
1<
#704003
0=
#704004
1:
0>
#704005
1.
0;
#704006
0/
#708000
0!
#708001
0?
#708002
00
08
#708003
0,
#712000
0$
1&
#712001
12
0B
#712002
11
09
1>
#712003
0-
1;
#712004
1/
#716000
1$
0%
#716001
1B
0C
#716002
19
#716003
1-
#720000
0$
#720001
0B
#720002
07
09
#720003
0+
0-
1=
#720004
18
#720005
1,
0:
#720006
0.
#724000
1'
0*
#724001
13
06
#724002
0<
#728000
1#
1*
#728001
16
1A
#728002
19
0>
#728003
1-
0;
#728004
0/
#732000
0#
1$
0'
#732001
03
0A
1B
#732002
17
1<
1>
#732003
1+
1;
0=
#732004
1/
08
1:
#732005
0,
1.
#736000
1#
1'
#736001
13
1A
#736002
07
0<
0>
#736003
0+
17
0:
0;
1=
#736004
1+
0.
0/
18
#736005
1,
#740000
0'
#740001
03
#740002
1>
#740003
1;
#740004
1/
#744000
0&
1'
#744001
02
13
#744002
01
0>
#744003
0;
1<
0=
#744004
0/
07
08
1:
#744005
0+
0,
1.
#748000
1"
1%
#748001
1@
1C
#752000
1!
0$
#752001
1?
0B
#752002
10
18
#752003
1,
1=
#752004
0:
#752005
0.
#756000
0!
1$
0%
0'
#756001
03
0?
1B
0C
#756002
00
17
1>
#756003
1+
1;
0=
#756004
1/
08
1:
0>
#756005
0,
1.
0;
#756006
0/
#760000
1!
0$
1&
1'
#760001
12
13
1?
0B
#760002
10
11
07
18
#760003
0+
1,
0<
1=
#760004
0:
#760005
0.
#764000
0!
0"
0*
#764001
06
0?
0@
#764002
00
1>
#764003
1;
#764004
1/
#768000
0&
#768001
02
#768002
01
#768003
0=
#768004
08
1:
0>
#768005
0,
1.
0:
0;
#768006
0.
0/
#772000
1!
1$
1%
1&
#772001
12
1?
1B
1C
#772002
11
17
1>
#772003
1+
1:
1;
1=
#772004
1.
1/
#776000
0$
0&
0'
1*
#776001
02
03
16
0B
#776002
10
01
18
#776003
1,
0:
1<
#776004
0.
0=
#776005
1:
0>
#776006
1.
0;
#776007
0/
#780000
1'
1(
#780001
13
14
#780002
07
1;
#780003
0+
1/
1=
#780004
0:
#780005
0.
#784000
1"
#784001
1@
#788000
1$
1&
#788001
12
1B
#788002
00
08
0;
#788003
0,
0/
11
1:
0=
#788004
1.
0<
1=
#788005
17
0:
#788006
1+
0.
#792000
0%
0&
#792001
02
0C
#792002
01
18
1;
#792003
1,
1/
1<
0=
#792004
07
1:
#792005
0+
1.
#796000
0#
#796001
0A
#796002
10
#796003
1=
#796004
0:
#796005
0.
#800000
0$
1&
0'
#800001
12
03
0B
#800002
09
0;
1>
#800003
0-
0/
#804000
1#
#804001
1A
#804002
19
#804003
1-
#808000
0!
#808001
0?
#812000
1!
0"
1%
#812001
1?
0@
1C
#812002
17
08
1;
#812003
1+
0,
1/
1:
0=
#812004
1.
#816000
0&
1)
#816001
02
15
#816002
18
0>
#816003
1,
#820000
0!
1$
0*
#820001
06
0?
1B
#820002
00
08
#820003
0,
11
0<
#820004
0:
1=
#820005
0.
18
1>
#820006
1,
#824000
1"
0%
1'
#824001
13
1@
0C
#824002
09
#824003
0-
#828000
0'
#828001
03
#828002
19
#828003
1-
#832000
1!
0#
0$
1'
#832001
13
1?
0A
0B
#832002
10
07
09
#832003
0+
0-
01
1<
#836000
1$
1%
#836001
1B
1C
#840000
0!
0"
0'
#840001
03
0?
0@
#840002
00
17
19
#840003
1+
1-
11
0<
0=
#840004
08
1:
1=
0>
#840005
0,
1.
18
0:
1>
#840006
1,
0.
#844000
1#
1'
0(
#844001
13
04
1A
#844002
09
#844003
0-
#848000
1"
0%
0'
#848001
03
1@
0C
#848002
19
#848003
1-
#852000
1!
0$
1*
#852001
16
1?
0B
#852002
10
07
#852003
0+
#856000
0!
1$
1%
1&
#856001
12
0?
1B
1C
#856002
00
17
08
0;
#856003
1+
0,
0/
1:
#856004
1.
#860000
1!
0$
0&
1'
#860001
02
13
1?
0B
#860002
10
18
09
1;
0>
#860003
1,
0-
1/
0:
0;
#860004
0.
0/
#864000
1$
1&
0*
#864001
12
06
1B
#864002
00
08
1>
#864003
0,
1:
#864004
1.
#868000
0$
0&
#868001
02
0B
#868002
10
18
1;
#868003
1,
1/
0:
#868004
0.
#872000
1$
#872001
1B
#872002
00
#876000
0'
#876001
03
#876002
19
#876003
1-
#880000
0#
0$
1'
#880001
13
0A
0B
#880002
10
09
#880003
0-
1<
#880004
07
0=
#880005
0+
1:
1=
0>
#880006
1.
0:
0;
1>
#880007
0.
0/
1;
#880008
1/
#884000
0!
1$
0%
#884001
0?
1B
0C
#888000
1#
0$
1%
#888001
1A
0B
1C
#888002
0<
#888003
17
#888004
1+
#892000
1$
0%
1*
#892001
16
1B
0C
#892002
00
0>
#892003
0;
#892004
0/
#896000
1!
0"
1&
0*
#896001
12
06
1?
0@
#896002
1>
#896003
1;
#896004
1/
#900000
0!
1"
1%
#900001
0?
1@
1C
#900002
08
0;
#900003
0,
0/
1:
#900004
1.
#904000
0"
0%
0&
#904001
02
0@
0C
#904002
18
1;
#904003
1,
1/
0:
#904004
0.
#912000
1"
0$
1&
#912001
12
1@
0B
#912002
10
07
0;
#912003
0+
0/
#916000
1!
0&
#916001
02
1?
#916002
1;
#916003
1/
#920000
0"
1$
0'
1*
#920001
03
16
0@
1B
#920002
00
17
19
#920003
1+
1-
#924000
1'
#924001
13
#924002
09
0>
#924003
0-
0;
#924004
0/
#928000
0#
1&
#928001
12
0A
#928002
10
1<
#928003
07
0=
#928004
0+
1:
1=
#928005
1.
0:
#928006
0.
#932000
0!
0$
0&
0'
#932001
02
03
0?
0B
#932002
00
1>
#932003
1;
#932004
1/
#940000
1"
1#
#940001
1@
1A
#940002
10
19
0<
#940003
1-
#944000
1$
1'
#944001
13
1B
#944002
00
17
09
0>
#944003
1+
0-
0;
#944004
0/
#948000
0#
1%
#948001
0A
1C
#948002
10
1<
#948003
07
0=
#948004
0+
08
1:
1=
#948005
0,
1.
18
#948006
1,
0:
#948007
0.
#952000
1!
0$
0%
1&
0'
#952001
12
03
1?
0B
0C
#952002
1>
#956000
0!
#956001
0?
#960000
1%
0&
#960001
02
1C
#960002
17
1;
#960003
1+
1/
0=
#960004
08
1:
0>
#960005
0,
1.
0;
#960006
0/
#964000
1&
#964001
12
#964002
1>
#968000
1$
0&
#968001
02
1B
#968002
19
1;
0>
#968003
1-
1/
0;
#968004
0/
#972000
1#
0$
0*
#972001
06
1A
0B
#972002
0<
#972003
0:
1=
#972004
0.
18
1>
#972005
1,
1;
#972006
1/
#976000
1!
#976001
1?
#980000
0!
0#
0%
1&
#980001
12
0?
0A
0C
#980002
07
09
0;
1<
#980003
0+
0-
0/
#984000
1!
1*
#984001
16
1?
#988000
0!
1#
1%
0&
1'
#988001
02
13
0?
1A
1C
#988002
1;
0<
0>
#988003
1/
17
0;
#988004
1+
0/
#992000
0"
1$
#992001
0@
1B
#992002
00
#996000
0$
1&
0'
#996001
12
03
0B
#996002
08
19
1>
#996003
0,
1-
1:
1;
#996004
1.
1/
#1000000
1$
0&
#1000001
02
1B
#1000002
18
#1000003
1,
0:
#1000004
0.
#1004000
1!
0$
0%
1'
#1004001
13
1?
0B
0C
#1004002
10
07
09
0>
#1004003
0+
0-
0;
#1004004
0/
#1008000
0!
1"
1$
0)
#1008001
05
0?
1@
1B
#1008002
00
01
17
19
#1008003
1+
1-
1<
0=
#1008004
07
08
1:
#1008005
0+
0,
1.
#1012000
0$
0'
#1012001
03
0B
#1012002
10
#1012003
1=
#1012004
18
1>
#1012005
1,
0:
1;
#1012006
0.
1/
#1016000
0"
1&
#1016001
12
0@
#1016002
00
11
#1016003
0<
#1020000
1$
0&
1(
0*
#1020001
02
14
06
1B
#1020002
01
17
#1020003
1+
0=
#1020004
08
1:
0>
#1020005
0,
1.
0:
#1020006
0.
#1024000
0#
0$
1%
#1024001
0A
0B
1C
#1024002
09
#1024003
0-
#1028000
1!
1$
1'
#1028001
13
1?
1B
#1028002
10
18
19
#1028003
1,
1-
1<
1=
#1028004
07
0=
1>
#1028005
0+
1:
1=
0>
#1028006
1.
0:
1>
#1028007
0.
#1032000
1"
1&
0'
#1032001
12
03
1@
#1032002
17
08
0;
#1032003
1+
0,
0/
1:
0=
#1032004
1.
#1036000
0!
0"
0$
#1036001
0?
0@
0B
#1036002
00
09
1;
#1036003
0-
1/
11
0<
#1036004
1=
#1040000
1"
1#
0%
#1040001
1@
1A
0C
#1040002
10
07
18
19
0;
#1040003
0+
1,
1-
0/
01
0:
#1040004
0.
1<
#1044000
1$
#1044001
1B
#1044002
00
17
#1044003
1+
11
0<
0=
#1044004
08
1:
1=
#1044005
0,
1.
18
#1044006
1,
0:
#1044007
0.
#1048000
0"
0$
1%
0&
#1048001
02
0@
0B
1C
#1048002
01
1;
#1048003
1/
0=
#1048004
08
1:
0>
#1048005
0,
1.
0:
#1048006
0.
#1052000
1$
#1052001
1B
#1056000
0#
0%
#1056001
0A
0C
#1060000
1"
0$
#1060001
1@
0B
#1060002
10
07
09
#1060003
0+
0-
1<
1=
#1060004
18
1:
1>
#1060005
1,
1.
0:
#1060006
0.
#1064000
1#
1$
1&
1'
#1064001
12
13
1A
1B
#1064002
00
19
0;
#1064003
1-
0/
11
0<
0=
#1064004
17
08
1:
1=
#1064005
1+
0,
1.
18
#1064006
1,
0:
#1064007
0.
#1068000
0$
0&
1*
#1068001
02
16
0B
#1068002
10
01
07
1;
0>
#1068003
0+
1/
1<
#1072000
0#
0'
#1072001
03
0A
#1072002
09
1>
#1072003
0-
#1076000
1&
0*
#1076001
12
06
#1076002
0;
#1076003
0/
#1080000
1%
0&
#1080001
02
1C
#1080002
17
1;
#1080003
1+
1/
0=
#1080004
08
1:
0>
#1080005
0,
1.
#1084000
1#
#1084001
1A
#1084002
19
#1084003
1-
#1088000
0#
0%
1&
#1088001
12
0A
0C
#1088002
07
09
0;
1>
#1088003
0+
0-
0/
1=
#1088004
18
#1088005
1,
0:
#1088006
0.
#1092000
1$
#1092001
1B
#1092002
17
19
#1092003
1+
1-
0=
#1092004
08
1:
